gestation,wt,parity,race,age,ed,ht,wt.1,married,inc,ever_smoked,,
284,120,1,8,27,5,62,100,yes,1,no,,
282,113,2,0,33,5,64,135,yes,4,no,,
279,128,1,0,28,2,64,115,yes,2,yes,,
282,108,1,0,23,5,67,125,yes,1,yes,,
286,136,4,0,25,2,62,93,yes,4,yes,,
245,132,2,7,23,1,65,140,yes,2,no,,
289,120,3,0,25,4,62,125,no,2,no,,
299,143,3,0,30,5,66,136,yes,2,yes,,
282,144,4,0,32,2,64,124,yes,2,yes,,
279,141,3,0,23,1,63,128,yes,2,yes,,
281,110,5,8,36,5,61,99,yes,2,yes,,
273,114,3,7,30,2,63,154,yes,1,no,,
285,115,4,7,38,2,63,130,yes,1,no,,
255,92,3,4,25,7,65,125,yes,1,yes,,
261,115,3,3,33,2,60,125,yes,4,yes,,
261,144,2,0,33,2,68,170,yes,7,no,,
288,119,3,0,43,2,66,142,yes,5,yes,,
270,105,3,9,22,2,56,93,yes,3,no,,
274,115,1,4,27,4,67,175,yes,3,yes,,
287,137,1,0,25,4,66,145,yes,2,yes,,
276,122,6,7,30,1,68,182,yes,2,no,,
294,131,2,7,23,2,65,122,yes,2,yes,,
261,103,6,4,27,1,65,112,yes,6,yes,,
280,146,1,6,26,0,58,106,yes,2,yes,,
266,114,2,0,20,2,65,175,yes,2,yes,,
292,125,3,3,32,2,65,125,yes,1,no,,
274,114,2,0,28,5,66,132,yes,6,yes,,
270,122,2,0,26,2,61,105,yes,3,no,,
278,93,3,7,34,1,61,146,yes,4,yes,,
268,130,2,0,30,2,66,123,yes,7,yes,,
275,119,1,10,23,2,60,105,yes,2,no,,
281,113,3,0,24,4,65,120,yes,0,no,,
283,134,1,0,22,2,67,130,yes,2,no,,
279,107,1,5,24,5,63,115,yes,4,yes,,
288,134,2,0,23,2,63,92,yes,1,yes,,761
267,122,1,0,27,4,65,101,yes,7,yes,,30
293,129,2,0,30,4,61,160,yes,3,no,,204
278,110,3,0,23,4,63,177,yes,2,no,,37
270,111,4,6,27,1,61,119,yes,2,yes,,19
248,87,10,0,37,1,65,130,yes,8,yes,,11
274,143,3,0,27,4,63,110,yes,4,yes,,
294,155,6,7,32,2,66,150,yes,1,yes,,
272,110,2,8,25,1,60,90,yes,2,no,,
275,122,1,0,26,5,66,147,yes,1,no,,
291,145,4,10,26,4,63,119,yes,4,yes,,
258,115,4,0,26,7,62,130,yes,2,no,,
283,108,6,0,31,1,65,148,yes,6,yes,,
282,102,1,8,28,5,61,110,yes,6,no,,
286,143,5,5,31,2,64,126,yes,4,no,,
267,146,2,0,30,5,67,132,yes,4,yes,,
275,124,3,4,22,1,60,130,yes,4,no,,
278,124,2,0,26,4,70,145,yes,3,yes,,
257,145,5,7,33,4,65,140,yes,3,yes,,
232,75,1,0,33,4,61,110,yes,7,yes,,
273,107,1,6,24,2,61,96,yes,1,no,,
288,124,1,1,22,4,67,118,yes,1,no,,
280,122,2,0,23,4,65,125,yes,3,yes,,
245,101,1,4,23,2,63,130,yes,2,yes,,
283,128,4,5,28,2,63,125,yes,8,yes,,
282,104,5,0,36,5,65,115,yes,7,yes,,
246,97,6,7,37,2,63,150,yes,2,no,,
274,137,2,0,26,4,69,137,yes,1,yes,,
273,103,5,7,31,1,63,170,yes,4,yes,,
276,142,5,9,38,1,63,170,yes,3,yes,,
289,130,1,5,27,5,66,130,yes,3,no,,
284,133,1,7,25,2,66,125,yes,2,yes,,
274,120,3,3,24,4,62,120,yes,3,no,,
270,91,3,7,24,3,60,149,yes,4,yes,,
274,127,2,7,21,2,62,110,yes,2,no,,
286,153,4,7,26,4,63,107,yes,2,yes,,
277,120,1,0,27,4,63,126,yes,5,yes,,
272,99,5,5,27,2,62,103,yes,2,yes,,
293,149,5,0,35,4,65,116,yes,5,yes,,
280,129,2,4,23,4,64,104,yes,2,no,,
292,139,2,0,25,5,68,135,yes,2,yes,,
274,114,5,0,33,5,67,148,yes,5,yes,,
287,138,1,0,30,5,66,145,yes,3,no,,
294,138,3,0,32,5,65,117,yes,2,no,,
296,131,7,0,37,5,63,143,yes,9,no,,
305,125,1,0,22,3,70,196,yes,5,yes,,
268,134,2,0,28,5,62,112,yes,7,no,,
271,114,2,0,27,2,60,104,yes,7,no,,
278,85,3,0,23,1,61,103,yes,3,yes,,
282,135,1,0,22,2,64,100,yes,3,no,,
302,125,2,3,37,4,62,162,yes,5,no,,
254,105,7,7,29,2,64,137,yes,8,yes,,
279,120,2,0,27,3,60,121,yes,2,yes,,
274,119,3,0,33,5,64,120,yes,9,no,,
280,107,4,7,36,2,65,117,yes,5,yes,,
273,119,1,0,24,2,61,108,yes,7,yes,,
279,133,5,2,37,2,66,140,yes,6,yes,,
287,155,2,0,33,5,66,143,yes,3,no,,
273,126,2,0,22,2,65,150,yes,7,no,,
303,129,1,0,27,5,64,125,yes,7,no,,
274,137,4,7,29,1,65,154,yes,3,no,,
302,125,4,5,28,4,65,125,yes,3,no,,
255,91,1,0,19,1,67,136,yes,0,yes,,
279,95,1,3,22,4,66,145,yes,4,yes,,
276,118,1,0,29,2,64,114,yes,2,yes,,
278,141,8,7,33,1,66,109,yes,5,yes,,
283,131,2,1,25,4,67,215,yes,2,no,,
264,121,6,0,32,4,66,145,yes,8,yes,,
243,100,1,0,39,2,65,170,yes,5,yes,,
288,131,3,0,24,2,61,103,yes,2,no,,
284,118,1,1,26,2,66,133,yes,2,no,,
288,152,3,5,35,4,67,130,yes,4,no,,
284,121,6,0,34,5,69,155,yes,7,no,,
276,117,2,5,31,5,69,150,yes,8,no,,
283,115,2,0,25,2,61,150,yes,2,yes,,
277,112,3,0,23,4,65,110,yes,3,yes,,
267,94,3,0,30,4,62,120,yes,5,yes,,
272,109,2,0,35,2,66,154,yes,5,no,,
225,132,4,7,28,2,67,148,yes,3,no,,
278,117,2,0,25,4,62,103,yes,3,no,,
266,101,2,4,20,1,67,110,yes,4,yes,,
294,112,1,7,25,2,64,125,yes,5,yes,,
279,128,2,2,25,4,66,147,yes,2,yes,,
258,117,3,2,31,2,64,120,yes,6,no,,
278,134,1,0,24,3,69,135,yes,2,yes,,
269,93,2,0,21,1,65,104,yes,1,yes,,
265,100,6,0,39,2,62,107,yes,3,yes,,
293,147,3,0,32,4,65,123,yes,5,yes,,
299,120,2,0,25,3,65,110,yes,2,yes,,
277,144,3,0,30,5,63,127,yes,7,no,,
268,105,5,0,32,4,61,115,no,0,yes,,
276,136,1,0,23,2,66,155,yes,2,no,,
262,102,3,7,24,2,63,125,yes,2,no,,
300,160,7,0,29,4,71,175,yes,6,yes,,
275,113,1,0,24,3,68,140,yes,5,yes,,
271,126,2,0,29,5,68,148,yes,2,no,,
278,115,2,5,29,5,61,128,yes,7,yes,,
284,119,1,7,20,2,66,132,yes,1,no,,
318,123,2,5,21,1,64,152,yes,1,no,,
282,118,4,0,22,1,68,135,yes,6,yes,,
287,133,1,0,24,4,60,104,yes,2,yes,,
290,134,1,6,22,2,60,121,yes,4,no,,
288,144,1,0,21,4,67,111,yes,1,yes,,
273,111,4,7,43,0,62,138,yes,2,no,,
262,125,7,7,36,2,66,190,yes,2,no,,
296,135,2,3,30,2,63,123,yes,4,no,,
289,134,1,0,22,4,63,125,yes,1,yes,,
289,116,1,5,22,2,65,160,yes,2,yes,,
291,129,1,0,29,5,69,123,yes,1,yes,,
301,113,4,0,26,2,67,105,yes,5,yes,,
295,131,1,1,23,2,65,123,yes,3,yes,,
293,126,1,8,29,3,59,110,yes,3,yes,,
272,121,1,5,22,2,62,109,yes,3,no,,
271,121,3,0,25,4,68,118,yes,7,yes,,
287,138,1,0,24,4,65,115,yes,2,no,,
278,136,1,9,23,4,61,105,yes,3,no,,
279,120,3,0,30,4,66,131,yes,3,no,,
278,122,4,0,31,2,72,155,yes,3,yes,,
267,134,3,0,30,4,66,170,yes,2,no,,
280,101,1,7,25,4,65,123,yes,1,yes,,
288,112,5,7,32,5,62,125,yes,6,no,,
290,132,2,0,25,4,64,120,yes,3,yes,,
285,136,1,0,23,2,62,175,yes,4,no,,
277,113,4,0,23,1,65,192,yes,1,yes,,
271,96,2,7,23,4,64,116,yes,2,no,,
277,124,3,7,29,2,63,220,no,7,no,,
306,113,1,0,21,4,62,150,yes,1,no,,
258,137,1,0,25,5,63,117,yes,4,yes,,
268,133,1,8,24,5,61,93,yes,7,no,,
244,107,1,5,20,2,58,97,yes,1,no,,
265,96,4,7,28,2,59,135,yes,1,yes,,
278,142,3,0,35,5,66,136,yes,2,yes,,
275,136,1,6,22,2,63,110,yes,3,yes,,
239,75,3,0,26,2,63,124,yes,4,yes,,
295,104,4,7,26,4,65,155,yes,2,yes,,
274,130,5,7,30,1,63,150,yes,1,no,,
290,90,3,7,22,2,63,168,yes,1,yes,,
276,118,3,0,22,2,66,147,yes,3,yes,,
320,123,2,0,22,4,66,117,yes,1,yes,,
291,137,6,3,34,5,61,110,yes,4,no,,
268,101,2,7,19,1,63,140,yes,3,no,,
282,98,1,5,20,1,63,97,yes,2,yes,,
283,124,1,7,23,4,63,112,yes,2,no,,
281,109,1,0,23,4,61,105,yes,4,no,,
285,150,3,7,22,1,61,110,yes,1,yes,,
282,119,2,7,26,4,68,150,yes,3,yes,,
280,131,5,2,38,4,65,125,yes,4,yes,,
272,101,1,7,29,4,63,150,yes,5,yes,,
246,113,2,7,19,1,62,138,yes,4,yes,,
270,127,3,6,25,5,62,150,yes,7,no,,
260,97,2,0,23,2,61,99,yes,2,yes,,
282,117,4,0,28,4,64,115,yes,2,no,,
290,150,1,3,21,1,65,125,yes,3,no,,
234,85,7,7,33,1,67,130,yes,2,no,,
288,128,3,5,27,4,70,145,yes,2,yes,,
233,105,4,7,34,3,61,130,yes,3,no,,
269,90,4,0,26,2,67,125,yes,8,yes,,
274,115,1,0,22,2,65,130,yes,4,yes,,
290,107,2,5,28,2,62,135,yes,4,yes,,
275,121,1,0,24,3,63,121,yes,7,yes,,
286,119,1,4,20,2,64,180,yes,2,no,,
275,117,2,7,20,1,64,145,yes,1,yes,,
264,134,1,0,26,5,68,136,yes,7,no,,
288,117,7,0,35,2,65,142,yes,5,no,,
268,115,3,0,28,2,66,128,yes,5,no,,
254,110,2,4,23,2,63,120,yes,1,yes,,
274,140,2,7,23,2,63,106,yes,2,yes,,
292,154,1,0,42,3,65,116,yes,6,yes,,
290,125,1,0,19,1,64,127,yes,2,yes,,
276,126,1,5,23,4,63,120,yes,6,no,,
274,85,1,7,24,4,68,155,yes,1,no,,
293,173,6,0,30,2,63,110,yes,7,no,,
329,144,3,9,22,2,65,190,yes,2,yes,,
278,114,2,0,25,4,65,140,yes,1,yes,,
287,154,2,5,27,3,65,125,yes,2,yes,,
274,150,1,1,25,2,67,117,yes,3,yes,,
278,111,1,3,21,2,62,125,yes,2,no,,
277,126,2,0,32,4,66,128,yes,6,no,,
261,122,3,0,28,2,65,124,yes,4,yes,,
282,141,3,0,24,2,68,169,yes,3,yes,,
274,142,3,7,24,1,63,125,yes,1,no,,
286,113,2,0,23,2,63,105,yes,2,no,,
282,149,1,0,21,2,61,110,yes,4,no,,
328,117,1,0,29,2,65,125,yes,4,yes,,
274,130,4,7,26,3,64,185,yes,3,yes,,
275,106,3,4,31,4,65,142,yes,8,yes,,
290,128,1,0,22,4,64,118,yes,3,yes,,
286,125,1,9,21,2,64,139,yes,6,no,,
290,114,3,9,30,2,66,160,yes,1,no,,
148,116,7,7,28,1,66,135,no,2,no,,
256,81,4,2,30,1,64,148,yes,5,yes,,
292,125,1,7,22,4,65,122,yes,6,no,,
262,110,1,0,25,5,66,140,yes,6,yes,,
279,125,1,5,23,2,63,104,yes,2,yes,,
294,138,1,1,40,2,64,125,yes,3,yes,,
284,142,5,2,39,2,66,132,yes,5,no,,
278,115,3,0,23,2,60,102,yes,4,yes,,
280,102,3,5,38,4,67,140,yes,6,yes,,
290,127,3,0,35,2,66,165,yes,4,yes,,
274,104,0,5,20,2,62,115,yes,5,yes,,
301,152,2,0,29,1,65,150,yes,4,no,,
284,123,0,0,20,4,65,120,yes,4,yes,,
273,143,3,0,19,2,66,135,yes,1,no,,
308,131,1,1,40,4,65,160,yes,7,yes,,
277,129,1,0,30,4,66,142,yes,1,yes,,
282,113,0,3,36,2,59,140,yes,7,yes,,
292,119,2,4,33,2,62,118,yes,2,yes,,
295,109,0,3,23,2,63,103,yes,7,yes,,
280,104,0,0,27,5,68,146,yes,7,yes,,
282,131,0,0,21,4,66,126,yes,4,no,,
279,148,3,7,27,4,71,189,yes,1,no,,
283,137,0,4,20,2,65,157,yes,2,no,,
283,117,2,5,27,4,63,108,yes,2,no,,
302,115,0,0,22,2,67,135,yes,7,no,,
280,98,2,10,35,2,64,122,yes,7,yes,,
303,136,0,5,20,2,68,148,yes,1,yes,,
276,121,0,0,23,5,71,152,yes,1,yes,,
285,132,0,0,25,4,63,140,yes,3,no,,
264,91,2,7,36,3,60,100,yes,7,yes,,
294,119,1,0,34,3,59,105,yes,3,yes,,
271,106,0,0,26,5,61,110,yes,5,yes,,
284,132,2,0,29,5,64,122,yes,6,yes,,
266,80,0,0,25,2,62,125,yes,2,no,,
286,109,1,0,24,2,64,125,yes,4,yes,,
306,111,2,8,27,4,61,102,yes,5,yes,,
292,143,0,0,21,3,65,125,yes,6,yes,,
290,136,1,0,26,4,66,135,yes,6,yes,,
285,110,0,7,19,2,64,130,no,0,yes,,
257,98,2,0,29,2,66,130,yes,1,yes,,
305,108,0,0,24,4,65,112,yes,1,no,,
295,101,1,7,18,1,62,145,yes,4,yes,,
281,71,1,7,32,4,60,117,yes,3,yes,,
292,124,2,7,29,3,68,176,yes,0,yes,,
276,106,3,1,30,4,66,130,yes,7,yes,,
278,101,1,0,25,2,62,112,yes,7,yes,,
277,100,2,0,31,2,62,100,yes,6,yes,,
269,104,4,5,35,2,63,110,yes,7,yes,,
270,117,3,0,24,2,67,135,yes,4,yes,,
267,117,4,4,29,2,65,120,yes,3,yes,,
279,149,1,5,25,2,67,135,yes,2,no,,
284,135,1,0,25,5,66,123,yes,3,no,,
283,110,0,0,21,2,66,129,yes,5,yes,,
276,121,3,0,31,5,67,130,yes,2,no,,
285,142,0,0,24,3,66,136,yes,6,no,,
260,104,1,1,33,2,64,145,yes,7,no,,
296,138,1,0,34,5,66,120,yes,7,no,,
293,117,3,7,39,1,60,120,yes,1,yes,,
282,109,1,7,25,5,62,106,yes,3,yes,,
266,131,0,5,28,5,67,135,yes,3,no,,
273,120,1,7,29,5,64,130,yes,7,yes,,
270,116,1,0,29,5,63,132,yes,2,no,,
290,140,2,0,23,4,65,110,yes,4,yes,,
273,103,0,0,22,2,64,110,yes,3,yes,,
279,120,0,0,23,5,67,135,yes,2,yes,,
254,123,1,3,26,5,62,130,yes,5,yes,,
280,104,0,0,23,2,64,107,yes,7,yes,,
270,111,1,0,22,4,59,103,yes,7,no,,
277,122,5,7,32,4,63,157,yes,3,yes,,
271,116,0,2,30,5,67,144,yes,5,yes,,
277,129,1,0,27,5,68,130,yes,6,yes,,
292,133,2,0,30,2,65,112,yes,4,yes,,
277,110,1,0,25,1,61,130,yes,1,yes,,
276,105,2,7,22,3,67,130,yes,1,no,,
246,93,3,0,37,2,65,130,yes,5,no,,
281,122,3,1,42,3,63,103,yes,2,yes,,
293,133,2,5,23,3,64,110,yes,5,yes,,
296,130,0,0,22,5,66,117,yes,1,yes,,
307,104,1,2,24,4,59,122,yes,3,no,,
278,106,3,0,31,5,65,110,yes,1,yes,,
281,120,2,0,33,3,63,113,yes,4,no,,
280,116,8,7,40,1,62,159,yes,4,no,,
284,129,2,5,24,4,64,115,yes,3,no,,
286,120,2,6,22,2,62,115,yes,1,yes,,
281,127,1,0,24,4,63,112,yes,6,yes,,
234,71,4,8,32,2,64,110,yes,5,yes,,
274,88,4,0,30,2,66,130,yes,2,no,,
286,122,1,7,23,4,64,145,yes,0,no,,
302,106,0,0,19,2,66,147,yes,0,no,,
285,135,3,0,30,4,66,130,yes,2,no,,
290,107,3,4,26,3,63,112,yes,3,yes,,
294,129,3,1,32,2,62,170,yes,3,yes,,
274,126,4,5,39,5,62,122,yes,5,no,,
293,116,0,0,26,5,64,125,yes,1,no,,
294,124,1,7,26,5,62,122,yes,6,yes,,
281,123,1,5,23,1,68,136,yes,3,no,,
278,102,1,0,27,2,67,135,yes,4,yes,,
293,129,3,0,30,2,65,130,yes,7,yes,,
276,98,0,7,22,4,61,121,yes,1,yes,,
272,110,1,10,28,7,60,108,yes,7,no,,
282,135,1,0,24,5,67,128,yes,2,yes,,
278,101,0,0,20,4,62,105,yes,3,no,,
266,96,1,0,26,5,65,125,yes,6,no,,
276,104,0,3,18,2,60,109,yes,1,yes,,
249,100,3,7,24,4,67,100,yes,3,no,,
292,154,1,3,40,0,66,145,yes,5,yes,,
293,127,1,0,31,5,67,137,yes,3,no,,
288,126,3,3,31,5,62,150,yes,3,no,,
282,126,0,0,23,4,66,115,yes,3,yes,,
279,127,3,0,26,3,67,155,yes,4,yes,,
275,98,1,0,25,5,65,112,yes,4,yes,,
299,129,1,7,22,4,68,145,yes,1,no,,
292,131,0,5,22,4,64,124,yes,3,yes,,
280,127,1,0,27,2,62,118,yes,2,yes,,
313,99,0,0,34,4,59,100,yes,0,yes,,
290,115,1,0,30,5,64,140,yes,8,yes,,
290,145,0,5,24,5,67,125,yes,6,yes,,
249,102,0,5,23,2,67,134,yes,6,yes,,
299,136,2,0,29,5,64,115,yes,3,no,,
282,121,2,5,22,1,66,133,yes,5,no,,
286,120,1,7,25,4,62,105,yes,2,no,,
261,118,1,8,26,2,60,104,yes,1,no,,
304,127,0,0,26,5,62,105,yes,3,no,,
281,132,0,0,24,5,63,117,yes,5,no,,
258,102,0,7,22,4,65,135,yes,0,no,,
279,143,7,0,39,3,65,129,yes,7,yes,,
277,118,2,8,25,3,62,120,yes,7,no,,
286,102,0,5,22,2,64,140,yes,2,yes,,
280,163,6,7,35,4,69,139,yes,2,no,,
294,132,1,0,32,5,64,116,yes,3,yes,,
276,116,3,7,33,2,61,180,yes,2,no,,
288,138,0,0,19,4,66,124,yes,5,no,,
279,139,1,0,20,2,64,143,yes,2,no,,
298,132,0,0,23,2,61,137,yes,3,yes,,
282,87,2,0,27,3,63,104,yes,4,yes,,
297,131,3,0,30,5,67,132,yes,7,no,,
282,130,1,7,26,5,67,147,yes,6,yes,,
290,123,2,0,28,4,66,107,no,4,yes,,
272,116,5,7,27,2,64,130,yes,4,yes,,
286,119,0,0,20,2,67,130,yes,3,no,,
279,125,0,0,19,4,67,135,yes,3,yes,,
282,144,1,0,33,4,66,155,yes,7,yes,,
269,123,2,5,26,5,67,132,yes,3,no,,
276,120,2,0,23,4,66,114,yes,3,no,,
271,120,0,7,17,1,64,142,yes,2,yes,,
289,120,0,10,31,5,59,102,yes,2,no,,
283,112,0,0,21,3,62,102,yes,5,yes,,
269,115,2,6,30,2,62,115,yes,1,yes,,
278,132,2,0,20,1,64,150,yes,4,yes,,
263,146,10,6,39,0,53,110,yes,3,yes,,
275,122,2,0,30,5,68,140,yes,3,no,,
292,128,1,0,32,2,66,130,yes,5,no,,
277,119,3,1,24,4,63,120,yes,3,yes,,
278,135,1,0,27,1,66,148,yes,3,no,,
235,129,3,7,24,4,66,135,yes,1,no,,
293,116,0,5,28,5,62,108,yes,8,yes,,
275,100,4,0,27,4,64,111,yes,5,yes,,
257,138,1,0,38,2,67,138,yes,1,no,,
282,123,2,7,22,4,65,130,yes,1,no,,
288,113,0,3,21,2,61,120,yes,2,yes,,
280,129,0,0,24,2,65,140,yes,5,yes,,
280,122,2,0,24,4,67,127,yes,2,yes,,
281,132,0,0,21,4,67,140,yes,0,no,,
269,120,0,8,40,5,63,130,yes,4,no,,
283,114,0,0,20,4,65,115,yes,3,no,,
280,130,2,9,29,1,66,135,yes,2,no,,
286,117,2,5,32,5,66,127,yes,2,yes,,
285,142,2,1,33,3,63,124,yes,7,yes,,
262,127,0,0,32,3,64,125,yes,5,no,,
270,115,2,7,25,2,67,165,yes,1,yes,,
258,85,1,5,41,3,67,137,yes,7,no,,
274,99,3,4,28,3,66,118,yes,7,yes,,
323,123,0,0,17,1,64,140,yes,1,no,,
281,112,0,7,23,2,61,150,yes,2,no,,
223,68,1,7,32,0,66,149,yes,5,yes,,
283,102,0,0,19,2,65,127,yes,1,yes,,
273,109,9,0,37,1,65,138,yes,1,yes,,
267,102,0,0,25,5,60,93,yes,3,yes,,
275,99,2,7,23,4,61,125,yes,2,yes,,
256,78,0,8,29,5,65,123,yes,7,no,,
303,107,0,0,25,4,67,133,yes,6,no,,
295,136,4,0,23,1,64,147,yes,4,no,,
278,101,2,0,27,2,61,99,yes,2,yes,,
275,100,0,0,25,2,64,125,yes,6,no,,
272,109,5,0,41,5,66,154,yes,5,yes,,
281,117,0,0,21,4,70,141,yes,4,yes,,
252,88,0,2,21,4,60,115,yes,4,yes,,
270,95,5,0,35,3,65,135,yes,2,yes,,
291,127,0,0,24,3,66,135,yes,7,yes,,
293,107,2,7,20,1,65,155,yes,1,yes,,
278,98,4,7,27,4,63,110,yes,1,yes,,
241,96,1,0,23,2,64,130,yes,1,yes,,
282,104,2,7,24,2,63,144,yes,3,yes,,
273,133,0,6,33,2,63,135,yes,5,no,,
267,93,1,8,25,5,63,135,yes,9,yes,,
280,101,0,1,24,5,65,123,yes,0,yes,,
277,118,1,7,21,1,64,155,yes,1,yes,,
290,115,0,7,19,4,65,118,yes,0,no,,
293,130,2,5,26,2,63,123,yes,6,no,,
277,114,0,10,31,5,64,125,yes,6,no,,
278,105,1,7,21,4,64,120,yes,3,yes,,
286,132,2,7,26,4,67,122,yes,4,yes,,
252,112,3,7,37,2,64,162,yes,3,yes,,
232,69,2,7,31,4,59,103,yes,4,yes,,
264,114,2,0,26,5,63,110,yes,1,yes,,
267,123,2,0,29,5,63,111,yes,1,yes,,
284,129,0,4,20,2,66,130,yes,2,yes,,
283,114,0,1,15,1,64,117,yes,1,yes,,
290,115,6,0,31,5,62,95,yes,7,no,,
272,98,0,7,35,4,64,129,no,1,no,,
283,128,2,7,27,4,67,126,yes,1,no,,
271,119,2,7,28,5,64,175,yes,4,yes,,
288,154,3,0,25,3,65,147,yes,4,no,,
247,127,0,6,21,2,63,140,yes,4,no,,
263,131,5,7,29,1,64,180,yes,1,yes,,
288,129,2,8,28,5,59,102,yes,4,no,,
280,110,1,8,29,3,62,110,yes,7,yes,,
268,103,3,7,31,2,64,150,yes,7,yes,,
287,117,1,1,20,2,65,115,yes,3,yes,,
282,138,1,4,25,2,64,120,yes,7,yes,,
280,126,1,0,24,4,66,147,yes,4,yes,,
271,124,1,0,23,4,66,145,yes,7,no,,
284,111,1,0,34,3,62,110,yes,1,no,,
282,132,1,0,28,5,67,200,yes,7,yes,,
240,103,1,0,26,2,65,140,yes,7,yes,,
285,158,2,0,28,2,62,130,yes,4,no,,
286,101,0,5,21,2,64,117,yes,7,yes,,
290,132,2,3,26,2,66,125,yes,1,yes,,
293,114,0,0,20,2,66,180,yes,0,yes,,
277,71,1,0,40,5,69,135,yes,9,no,,
282,116,2,0,19,2,64,120,yes,2,no,,
271,108,2,5,19,1,60,109,yes,1,yes,,
298,123,4,0,25,2,64,113,yes,2,yes,,
289,129,3,4,37,2,63,132,yes,4,no,,
282,134,1,0,24,2,62,110,yes,6,no,,
298,113,2,0,30,2,60,124,yes,4,yes,,
277,123,0,0,20,2,65,160,yes,4,no,,
277,147,1,0,30,5,68,160,yes,3,yes,,
284,125,0,1,19,2,67,130,yes,3,no,,
277,115,0,0,25,2,66,128,yes,6,no,,
289,101,5,4,27,4,59,96,yes,2,no,,
271,93,2,0,30,4,65,127,yes,8,yes,,
275,109,3,0,33,4,66,120,yes,2,yes,,
276,115,0,3,23,4,60,106,yes,5,no,,
293,130,0,2,23,2,65,122,yes,7,yes,,
300,111,1,4,20,2,64,108,yes,1,yes,,
279,97,0,0,24,1,64,138,yes,2,yes,,
292,122,0,5,25,5,65,125,yes,7,no,,
276,129,3,7,26,2,66,145,yes,1,no,,
290,124,1,0,26,4,59,140,yes,3,yes,,
280,107,1,7,20,4,60,107,yes,2,yes,,
273,142,0,0,22,2,62,125,yes,5,yes,,
287,129,0,1,29,2,66,135,yes,7,no,,
281,174,3,0,37,4,67,155,yes,7,no,,
264,105,5,7,30,4,65,105,no,6,yes,,
291,103,0,8,26,5,63,102,yes,2,no,,
285,124,0,8,27,4,63,114,yes,6,no,,
265,105,6,5,43,5,65,124,yes,8,yes,,
275,133,7,7,36,1,65,137,yes,6,yes,,
302,161,0,0,22,4,70,170,yes,5,yes,,
260,105,3,7,23,1,64,197,yes,2,no,,
281,108,8,7,41,1,66,171,yes,1,yes,,
297,153,1,5,27,2,66,145,yes,1,no,,
280,133,0,8,25,5,61,130,yes,0,no,,
269,115,4,5,41,2,63,165,no,9,yes,,
254,127,1,0,27,2,67,146,no,1,yes,,
271,128,2,0,41,2,65,135,yes,7,yes,,
265,117,2,0,40,4,68,134,yes,6,yes,,
274,123,2,5,23,4,66,135,yes,1,no,,
288,119,0,0,22,2,64,132,yes,7,yes,,
284,141,0,3,17,1,64,105,yes,1,yes,,
260,91,1,0,26,2,62,110,yes,4,yes,,
291,116,1,0,29,4,65,133,yes,4,yes,,
273,121,3,0,32,5,64,112,yes,7,no,,
274,111,5,0,36,2,67,159,yes,3,no,,
257,102,1,4,25,1,66,135,yes,1,no,,
283,118,1,0,24,2,65,150,yes,2,no,,
294,126,0,3,22,4,65,125,yes,1,yes,,
286,98,2,4,31,2,62,105,yes,2,yes,,
288,131,0,5,28,2,65,125,yes,5,no,,
278,115,1,3,21,2,60,113,yes,7,no,,
281,103,0,0,22,2,59,98,yes,5,yes,,
301,147,3,0,26,5,65,130,yes,5,yes,,
308,123,0,0,19,2,65,135,yes,1,yes,,
283,125,1,3,22,4,65,119,yes,4,no,,
270,117,2,4,30,1,67,130,yes,4,yes,,
268,99,4,5,29,4,71,150,yes,3,yes,,
283,115,1,0,31,3,66,127,yes,6,yes,,
265,116,11,7,36,1,63,120,yes,2,no,,
297,118,1,5,35,2,68,140,yes,5,yes,,
270,104,1,6,25,1,61,110,yes,1,no,,
269,108,0,4,20,1,62,114,yes,2,no,,
250,99,0,0,26,5,66,115,yes,3,no,,
263,97,0,7,25,4,63,107,yes,5,no,,
284,142,5,0,37,1,68,155,yes,4,yes,,
270,85,0,1,19,2,63,118,yes,3,yes,,
285,130,0,0,24,5,66,126,yes,4,yes,,
275,117,3,7,22,1,62,115,yes,2,yes,,
302,109,1,0,24,5,64,110,yes,2,yes,,
285,147,2,5,24,5,64,137,yes,1,yes,,
281,105,0,5,23,5,64,115,yes,2,yes,,
278,135,0,0,27,2,68,139,yes,7,yes,,
273,115,0,0,23,2,67,215,yes,0,yes,,
280,123,2,0,23,1,65,140,yes,2,yes,,
274,105,0,8,26,5,61,100,yes,7,no,,
271,154,6,1,36,2,69,160,yes,8,yes,,
276,110,2,8,25,4,63,107,yes,1,yes,,
285,119,0,7,26,4,62,108,yes,9,no,,
292,103,0,0,28,5,62,132,yes,6,no,,
272,117,1,0,25,2,64,116,yes,5,no,,
289,120,2,7,23,2,69,165,yes,1,no,,
278,145,3,0,24,2,62,109,yes,2,yes,,
271,104,2,7,20,2,62,98,yes,1,yes,,
268,123,0,6,18,1,62,110,yes,1,yes,,
272,124,2,5,27,2,62,110,yes,2,no,,
275,129,1,0,26,5,64,115,yes,2,yes,,
248,91,9,7,33,4,63,202,yes,3,yes,,
295,109,5,10,32,1,61,135,yes,2,no,,
268,108,2,5,22,2,58,112,yes,1,yes,,
268,79,1,5,36,2,61,108,yes,4,no,,
301,133,1,4,23,2,62,108,yes,4,yes,,
309,114,0,3,27,0,62,118,yes,2,no,,
273,128,4,0,34,5,61,125,yes,7,no,,
280,129,0,5,24,5,65,126,yes,5,no,,
234,97,0,6,26,5,65,112,yes,6,no,,
276,103,0,5,21,2,62,130,yes,1,yes,,
294,143,6,0,44,5,65,145,yes,7,yes,,
292,127,0,0,21,4,68,130,yes,3,yes,,
256,107,1,0,28,1,59,90,yes,1,yes,,
268,113,4,4,31,1,62,100,yes,3,no,,
285,152,2,0,24,2,61,120,yes,9,yes,,
275,150,4,7,29,1,65,145,yes,4,yes,,
278,136,4,3,35,4,64,118,yes,7,yes,,
298,151,3,0,37,2,64,135,yes,7,yes,,
279,124,5,0,35,1,66,129,yes,4,no,,
284,123,0,0,18,1,64,112,yes,1,yes,,
288,119,1,0,37,2,62,128,yes,0,no,,
291,122,5,7,40,4,64,155,yes,7,no,,
250,112,1,7,34,5,67,124,yes,7,yes,,
270,93,5,9,25,1,64,125,yes,2,yes,,
274,136,0,0,20,1,63,165,yes,1,yes,,
264,94,0,0,26,2,64,135,yes,5,no,,
274,129,1,0,19,1,65,101,yes,7,yes,,
292,125,1,0,27,4,65,117,yes,3,yes,,
273,124,1,6,21,2,63,115,yes,1,no,,
282,141,2,0,27,4,63,115,yes,4,no,,
266,96,1,0,33,5,67,135,yes,6,yes,,
297,138,1,5,30,4,66,133,yes,2,yes,,
282,127,3,0,28,2,67,134,yes,3,no,,
251,114,3,0,26,2,64,119,yes,5,yes,,
297,103,3,5,31,2,64,125,yes,7,no,,
288,127,0,2,20,2,65,115,yes,1,yes,,
274,113,3,4,23,2,63,108,yes,1,yes,,
279,97,3,0,33,4,61,105,yes,3,yes,,
275,116,0,0,20,2,68,145,yes,2,no,,
297,126,6,0,26,1,66,120,yes,7,yes,,
296,158,4,0,28,4,66,140,yes,4,yes,,
277,119,2,0,28,5,66,130,yes,7,yes,,
283,123,1,3,27,2,62,110,yes,2,no,,
287,129,3,0,24,2,60,107,yes,2,no,,
275,100,3,7,26,2,60,115,yes,1,yes,,
267,84,1,8,29,4,60,95,yes,7,no,,
302,115,1,1,28,2,64,116,yes,8,no,,
281,115,5,6,25,2,60,94,yes,1,no,,
284,118,4,7,28,2,70,145,yes,6,yes,,
292,91,0,0,19,2,61,125,yes,2,no,,
255,112,9,7,39,0,60,115,yes,2,yes,,
316,115,0,0,29,5,64,110,yes,4,yes,,
277,117,2,0,34,5,66,140,yes,4,no,,
267,99,1,6,22,2,62,94,yes,1,no,,
274,131,2,3,27,2,62,160,yes,3,yes,,
291,136,0,5,25,4,61,105,yes,4,no,,
298,130,1,4,20,2,62,120,yes,2,yes,,
296,134,5,4,35,5,60,117,yes,4,yes,,
271,128,2,0,29,4,65,126,yes,3,yes,,
286,150,3,0,38,4,67,175,yes,9,no,,
284,86,7,0,39,1,65,174,yes,3,yes,,
278,115,1,5,26,4,63,112,yes,3,yes,,
237,78,0,4,23,4,63,144,yes,3,yes,,
295,100,0,0,21,2,68,125,yes,1,yes,,
270,116,1,7,25,5,68,169,yes,3,no,,
271,110,0,0,26,4,66,135,yes,7,yes,,
283,109,4,7,34,2,64,120,yes,1,no,,
259,113,1,0,38,7,64,128,yes,3,no,,
297,136,0,0,23,5,66,135,yes,0,no,,
273,121,0,3,34,2,61,125,yes,8,no,,
288,117,0,8,28,5,63,140,no,1,yes,,
229,87,2,7,27,2,62,138,yes,0,yes,,
294,120,0,5,23,4,66,128,yes,3,yes,,
286,95,1,4,26,2,66,118,yes,7,yes,,
273,132,1,0,28,4,62,113,yes,3,no,,
286,90,1,0,32,5,63,105,yes,6,yes,,
308,131,2,3,30,2,58,150,yes,2,yes,,
279,103,0,7,22,5,65,145,no,1,yes,,
287,144,0,5,33,4,71,153,yes,8,yes,,
269,121,1,0,23,2,62,130,yes,3,no,,
280,116,5,7,34,4,68,198,yes,2,no,,
275,139,2,8,33,5,62,118,yes,7,no,,
280,110,3,1,39,0,67,125,yes,0,no,,
242,86,1,7,20,2,64,110,yes,1,yes,,
287,133,1,4,20,2,65,165,yes,3,no,,
254,81,1,7,23,2,62,157,yes,1,no,,
281,133,5,1,33,2,63,120,yes,3,yes,,
284,132,0,1,20,4,66,140,yes,3,no,,
287,132,3,0,29,4,64,148,yes,7,no,,
274,137,1,0,27,5,64,126,yes,1,yes,,
279,84,4,7,34,2,63,190,yes,1,no,,
279,136,3,4,30,4,69,130,yes,4,yes,,
270,92,2,8,34,5,62,100,yes,4,yes,,
298,114,0,7,28,4,67,114,yes,3,no,,
274,129,3,0,33,4,69,136,yes,6,yes,,
288,167,0,0,19,1,63,117,yes,1,no,,
282,124,0,5,22,5,65,118,yes,4,no,,
269,105,2,8,27,5,62,100,yes,4,yes,,
279,125,0,9,21,4,66,126,yes,5,no,,
283,125,0,0,22,5,59,96,yes,0,no,,
288,174,2,0,25,4,61,182,yes,3,no,,
290,127,2,0,35,4,66,122,yes,4,no,,
262,113,1,0,24,1,60,105,yes,1,no,,
273,115,1,0,22,2,66,130,yes,2,yes,,
277,139,5,1,35,4,63,140,yes,4,no,,
275,127,1,0,26,2,62,125,yes,3,no,,
272,112,3,3,26,1,60,98,yes,1,no,,
285,143,1,0,30,2,64,135,yes,2,yes,,
286,116,0,3,22,2,58,105,yes,3,yes,,
279,155,3,3,33,2,61,125,yes,1,no,,
290,121,1,0,31,5,64,127,yes,7,no,,
282,110,0,4,21,2,66,125,yes,3,yes,,
277,87,4,0,31,2,62,120,yes,3,yes,,
330,132,1,0,34,4,64,130,yes,5,yes,,
277,129,3,0,24,2,68,142,yes,7,no,,
280,123,1,3,20,2,62,105,yes,4,yes,,
279,91,0,8,27,4,62,118,yes,7,no,,
286,147,4,5,30,4,68,147,yes,3,yes,,
289,144,2,0,20,2,62,106,yes,1,no,,
292,128,3,3,30,2,64,127,yes,5,yes,,
318,137,0,0,19,2,64,110,yes,3,yes,,
289,104,4,6,24,1,60,104,yes,2,yes,,
271,120,2,3,32,2,63,130,yes,1,no,,
277,112,0,4,23,5,64,118,yes,2,no,,
286,138,1,0,26,4,63,111,yes,5,no,,
280,96,1,5,27,4,63,105,yes,6,yes,,
285,134,1,10,35,5,62,134,yes,4,no,,
285,126,1,0,24,2,64,140,yes,3,no,,
300,112,1,7,29,4,62,121,yes,7,yes,,
313,138,0,0,27,5,65,111,yes,5,no,,
275,110,2,5,25,1,63,120,yes,2,no,,
253,83,1,2,29,5,63,110,yes,9,yes,,
288,112,0,0,20,2,62,110,yes,7,no,,
286,148,2,0,38,5,68,160,yes,3,yes,,
300,119,0,0,34,5,63,124,yes,2,yes,,
246,86,1,1,25,4,64,113,yes,3,yes,,
269,110,2,7,38,5,63,145,yes,7,yes,,
282,126,3,7,23,2,61,120,yes,1,no,,
272,125,1,10,30,4,60,96,yes,5,no,,
252,136,2,6,27,2,63,130,yes,5,no,,
283,127,0,2,29,5,64,119,yes,5,yes,,
272,84,3,7,25,1,64,150,yes,1,yes,,
278,131,3,7,22,4,66,124,yes,1,no,,
286,123,0,0,21,2,67,130,yes,5,yes,,
282,96,0,0,30,5,68,127,yes,6,yes,,
286,110,2,0,26,2,62,100,yes,6,no,,
282,123,2,0,29,2,68,164,yes,3,no,,
286,152,0,5,19,2,67,135,yes,2,no,,
288,127,1,0,28,2,65,155,yes,2,no,,
269,117,0,0,21,2,64,149,yes,4,yes,,
277,125,2,1,29,4,66,139,yes,2,yes,,
273,139,2,0,29,5,68,130,yes,7,no,,
280,114,2,5,31,4,66,134,yes,7,yes,,
280,96,0,0,34,5,62,127,yes,3,yes,,
289,124,3,7,29,2,63,110,yes,1,no,,
272,107,3,0,30,4,64,140,yes,7,yes,,
277,113,3,5,38,5,64,108,no,9,no,,
285,119,0,0,28,5,65,127,yes,6,no,,
268,107,3,10,37,1,58,112,yes,3,yes,,
255,117,2,0,26,2,61,120,yes,5,no,,
305,117,1,0,24,5,64,155,yes,1,no,,
276,144,1,0,23,2,67,129,yes,5,yes,,
268,136,2,0,30,5,63,132,yes,5,yes,,
278,121,1,5,28,4,69,132,yes,5,no,,
282,165,1,5,29,5,66,145,yes,2,no,,
279,120,6,4,38,2,64,124,yes,7,no,,
280,125,3,0,30,2,65,130,yes,5,yes,,
285,137,1,7,29,2,65,110,yes,5,yes,,
288,100,0,0,28,1,61,108,yes,5,yes,,
284,134,2,0,28,2,62,112,yes,1,no,,
262,88,2,7,20,1,65,118,yes,1,yes,,
291,108,2,0,39,4,65,135,yes,7,no,,
271,123,3,4,41,2,64,162,yes,7,no,,
277,141,3,0,38,4,66,162,yes,2,no,,
283,130,3,7,32,2,65,118,yes,1,no,,
289,113,0,0,26,4,59,91,yes,5,no,,
238,77,0,9,23,4,63,103,yes,7,yes,,
228,62,1,7,24,4,61,107,yes,4,yes,,
245,93,1,8,33,2,61,100,yes,3,yes,,
275,109,0,0,37,2,63,112,yes,7,yes,,
283,145,5,1,27,1,65,125,yes,1,yes,,
224,92,2,0,19,1,63,134,yes,1,yes,,
281,120,1,5,26,2,61,115,yes,3,no,,
284,135,1,0,39,1,67,141,yes,7,yes,,
287,113,4,0,36,5,63,118,yes,5,yes,,
251,126,0,5,28,5,64,123,yes,7,no,,
270,143,0,0,27,5,70,148,yes,7,yes,,
282,128,0,5,25,5,64,125,yes,8,no,,
262,98,2,5,22,4,67,120,yes,4,no,,
306,110,0,3,32,2,61,122,yes,4,no,,
284,162,4,6,27,1,64,126,yes,2,no,,
284,128,1,0,23,4,62,110,yes,2,no,,
275,111,0,0,18,1,61,108,yes,1,yes,,
280,137,3,8,34,5,60,107,yes,5,no,,
264,100,2,7,29,2,64,120,yes,4,yes,,
271,160,3,5,32,4,67,215,yes,7,no,,
267,112,0,3,22,2,62,138,yes,4,yes,,
297,134,1,0,27,2,67,170,yes,7,yes,,
308,145,2,0,35,1,64,110,yes,6,yes,,
295,116,9,5,32,1,65,120,yes,3,no,,
278,126,4,0,26,1,64,150,yes,1,yes,,
285,111,2,5,29,5,65,130,yes,7,no,,
282,126,3,0,33,2,62,117,yes,4,no,,
291,109,3,0,39,2,64,107,yes,3,no,,
291,136,3,0,41,3,66,191,yes,4,no,,
267,103,0,0,21,2,66,150,yes,5,yes,,
284,124,0,0,17,1,62,112,yes,1,no,,
286,155,6,5,31,1,66,127,yes,3,no,,
282,122,0,1,21,4,66,110,yes,2,yes,,
285,113,2,0,26,1,66,140,yes,3,yes,,
273,122,1,0,26,4,66,210,yes,3,yes,,
277,116,2,0,41,3,64,124,yes,1,yes,,
294,102,1,0,21,1,65,130,yes,6,yes,,
181,110,7,7,27,1,64,133,yes,1,no,,
285,133,0,7,30,5,64,160,yes,6,no,,
283,125,3,5,29,5,65,125,yes,3,yes,,
286,164,0,0,32,2,66,143,yes,3,no,,
297,133,3,7,36,1,61,125,yes,5,no,,
293,124,0,5,19,2,65,150,yes,5,no,,
306,122,0,7,22,4,62,100,no,1,no,,
272,100,2,7,30,4,64,150,yes,7,yes,,
266,90,0,0,26,4,67,135,yes,4,no,,
272,128,0,0,18,1,67,109,yes,0,no,,
276,86,0,5,23,2,65,125,yes,3,yes,,
282,123,1,0,30,4,63,118,yes,6,yes,,
275,87,3,7,28,4,63,110,yes,5,yes,,
291,128,0,3,27,2,63,132,yes,2,no,,
288,120,1,0,28,5,63,125,yes,6,yes,,
301,125,0,0,35,5,68,181,yes,9,no,,
265,118,2,7,27,5,61,123,yes,6,no,,
284,116,0,5,24,5,66,117,yes,5,no,,
262,131,1,0,22,4,67,135,yes,1,yes,,
286,151,0,0,22,4,66,130,yes,1,yes,,
273,88,1,0,20,1,66,110,yes,5,yes,,
284,137,4,7,30,4,67,110,no,5,no,,
278,96,0,3,18,1,60,120,no,1,yes,,
281,129,2,7,31,2,67,155,yes,3,no,,
288,128,0,0,26,5,65,114,yes,1,yes,,
281,111,0,5,27,5,64,112,yes,9,no,,
275,124,1,6,28,7,61,116,yes,1,no,,
292,112,0,0,28,5,62,110,yes,7,yes,,
281,115,4,3,28,4,61,128,yes,3,yes,,
271,72,7,0,39,4,61,136,yes,4,no,,
291,116,6,7,26,1,66,153,yes,0,no,,
272,127,2,0,20,1,64,130,yes,1,yes,,
266,90,2,7,23,1,61,99,yes,0,yes,,
273,99,0,2,27,5,59,115,yes,8,no,,
307,144,0,5,26,5,66,125,yes,3,no,,
280,138,0,0,30,1,65,175,yes,7,yes,,
245,58,6,7,34,4,64,156,yes,7,yes,,
265,109,0,3,24,2,63,107,yes,6,yes,,
277,110,0,2,19,4,62,160,yes,3,no,,
278,129,1,7,27,4,63,128,yes,7,no,,
284,150,4,7,40,1,67,130,yes,7,no,,
279,128,2,7,27,2,66,135,yes,3,no,,
284,142,0,5,31,5,66,137,yes,7,yes,,
268,115,0,1,31,4,64,125,yes,5,yes,,
274,108,3,7,28,1,66,175,yes,1,yes,,
283,108,1,8,35,4,62,108,yes,1,no,,
281,139,2,9,27,4,63,137,yes,3,no,,
275,115,3,7,25,1,61,155,yes,1,yes,,
288,136,1,7,23,2,62,217,yes,4,yes,,
285,131,3,5,26,2,64,130,yes,4,no,,
238,77,3,0,38,2,67,135,yes,9,yes,,
283,124,0,2,33,5,67,156,yes,8,yes,,
270,104,0,5,26,5,62,115,yes,3,no,,
267,102,0,5,24,2,61,109,yes,5,yes,,
268,94,4,0,30,1,62,105,yes,2,yes,,
295,158,0,0,37,4,70,137,yes,3,yes,,
275,112,0,7,21,2,68,143,yes,4,yes,,
286,119,2,5,26,5,64,123,yes,8,yes,,
279,97,5,7,29,1,68,178,yes,2,yes,,
252,99,1,5,21,2,64,120,yes,5,yes,,
264,115,0,7,23,4,67,134,yes,2,yes,,
284,139,9,6,37,3,61,121,yes,7,no,,
270,99,1,5,22,1,63,115,yes,2,yes,,
280,105,0,7,22,5,63,116,yes,3,yes,,
275,89,2,7,34,3,66,170,no,1,no,,
270,119,0,0,20,2,64,109,yes,6,yes,,
291,114,5,3,35,2,60,112,yes,5,no,,
289,106,1,0,28,5,67,120,yes,7,yes,,
292,122,0,0,34,2,65,133,yes,3,yes,,
286,121,0,4,22,1,69,130,yes,3,yes,,
282,112,2,0,26,2,65,122,yes,1,yes,,
266,112,2,0,26,4,64,122,yes,4,no,,
314,123,1,3,22,1,61,121,yes,4,yes,,
286,139,1,4,33,2,65,125,yes,5,yes,,
290,125,3,0,36,2,59,105,yes,3,no,,
276,130,6,0,41,4,68,130,yes,5,no,,
294,146,2,5,22,1,66,145,yes,5,yes,,
290,133,1,0,21,2,64,145,yes,1,no,,
296,147,0,0,19,2,67,124,yes,3,no,,
269,109,1,0,23,3,63,113,yes,3,no,,
286,122,2,0,23,2,64,120,yes,3,yes,,
260,135,4,0,43,3,65,135,yes,5,no,,
272,117,4,5,32,4,66,118,yes,5,no,,
284,138,3,0,30,4,66,133,yes,3,yes,,
283,120,2,5,28,2,64,122,yes,0,yes,,
273,119,2,0,35,2,65,125,yes,2,yes,,
278,118,0,7,19,2,62,126,yes,3,no,,
330,105,3,7,23,2,64,112,yes,4,yes,,
306,113,0,7,21,4,65,137,yes,1,no,,
291,148,0,4,21,2,63,115,yes,5,no,,
281,140,0,0,22,4,69,135,yes,1,no,,
287,134,0,3,33,4,67,131,yes,9,no,,
280,120,2,8,31,2,61,111,yes,1,no,,
296,123,0,1,26,5,64,110,yes,2,yes,,
275,102,2,6,43,2,64,160,yes,3,no,,
204,55,11,7,35,3,65,140,yes,6,no,,
283,123,2,0,21,2,65,110,yes,3,no,,
270,105,0,0,27,5,65,134,yes,6,yes,,
289,138,3,0,33,5,65,155,yes,8,yes,,
281,128,3,9,28,3,63,150,yes,2,no,,
285,139,3,4,30,1,65,129,yes,7,yes,,
288,104,0,0,27,2,61,122,yes,5,yes,,
296,159,0,0,27,3,64,112,yes,7,yes,,
276,118,3,0,29,2,62,130,yes,9,yes,,
285,99,2,0,25,2,69,128,yes,5,yes,,
281,144,1,0,20,2,63,120,yes,1,no,,
265,117,0,7,24,4,66,98,yes,1,no,,
293,119,0,0,23,4,65,127,yes,1,yes,,
283,125,6,5,37,3,63,145,yes,1,yes,,
273,101,5,9,39,2,60,113,yes,3,no,,
281,110,1,7,27,3,60,110,yes,6,no,,
270,100,0,7,21,4,65,132,yes,4,yes,,
284,98,1,1,29,5,68,140,yes,7,no,,
276,127,8,7,37,1,64,159,yes,2,no,,
324,117,1,0,22,1,62,164,yes,2,yes,,
278,122,1,2,37,7,68,114,yes,1,yes,,
273,122,0,0,23,4,64,130,yes,6,yes,,
281,118,0,7,36,1,66,140,yes,4,yes,,
275,120,2,2,32,5,63,115,yes,1,yes,,
285,143,2,7,27,4,68,185,yes,3,no,,
270,108,2,0,29,2,67,124,yes,5,yes,,
284,131,0,4,19,2,61,114,yes,2,yes,,
277,110,2,8,36,5,61,116,yes,7,no,,
276,105,1,0,20,2,62,112,yes,3,yes,,
255,125,2,7,23,4,63,133,yes,6,yes,,
258,78,0,2,24,4,66,115,yes,2,yes,,
289,114,3,0,36,5,60,115,yes,9,no,,
278,111,1,0,29,4,65,145,yes,4,yes,,
250,103,5,5,40,1,59,140,yes,2,no,,
276,114,1,7,26,4,62,127,yes,4,yes,,
247,75,9,5,36,1,64,120,yes,3,yes,,
296,169,2,0,33,1,67,185,yes,5,no,,
271,94,4,0,36,1,61,130,yes,4,yes,,
287,150,6,0,36,2,62,135,yes,3,no,,
248,144,1,0,30,2,70,145,yes,4,yes,,
291,144,1,0,28,2,67,130,yes,1,no,,
313,143,1,5,20,2,68,150,yes,1,no,,
304,145,0,0,25,2,63,109,yes,6,yes,,
285,121,2,0,34,5,64,110,yes,7,no,,
256,105,3,7,31,5,66,142,yes,7,yes,,
286,134,1,0,25,5,64,125,yes,5,no,,
294,129,0,0,21,4,65,132,yes,6,no,,
276,114,1,1,24,4,63,110,yes,4,no,,
265,97,2,5,30,2,61,110,yes,5,yes,,
292,160,2,0,28,5,64,120,yes,1,no,,
237,65,3,0,31,4,67,130,yes,4,yes,,
288,145,3,4,28,4,64,116,yes,4,no,,
273,95,1,1,23,4,60,90,yes,1,no,,
293,139,0,0,21,4,69,130,yes,7,no,,
288,123,1,0,27,5,63,125,yes,4,no,,
283,109,1,3,23,2,65,112,yes,3,yes,,
268,110,2,7,34,4,64,127,yes,2,no,,
296,122,0,0,24,5,65,132,yes,4,no,,
307,115,3,0,34,5,65,128,yes,9,yes,,
279,108,0,0,19,2,64,115,yes,6,no,,
287,120,2,7,23,2,67,116,yes,5,yes,,
269,131,3,0,36,2,68,145,yes,3,no,,
283,136,0,0,24,5,63,119,yes,2,no,,
290,125,4,3,32,2,63,135,yes,3,no,,
282,102,0,0,29,5,65,125,yes,5,yes,,
288,102,0,0,18,2,65,117,yes,0,yes,,
277,112,0,3,22,4,67,120,yes,1,no,,
266,91,3,7,23,1,60,120,yes,1,yes,,
276,129,1,0,31,5,63,125,yes,4,yes,,
290,155,1,0,26,2,66,129,yes,2,yes,,
274,109,2,0,33,2,69,144,yes,5,yes,,
273,125,4,7,30,2,64,145,yes,5,no,,
284,94,5,0,24,2,63,104,yes,7,yes,,
277,73,1,7,29,2,65,145,yes,3,no,,
267,123,0,0,19,1,66,132,yes,4,yes,,
232,65,1,7,24,3,66,125,yes,3,yes,,
283,102,2,5,39,2,60,119,yes,7,no,,
270,108,0,7,21,4,65,130,yes,1,yes,,
280,122,0,0,45,4,62,128,yes,9,no,,
268,103,4,0,32,2,62,97,no,1,yes,,
273,126,0,0,25,5,68,135,yes,5,no,,
293,139,1,1,34,2,66,131,yes,5,yes,,
290,124,1,0,26,4,65,165,yes,5,no,,
282,121,3,3,30,1,65,122,yes,3,no,,
299,126,0,4,21,2,60,114,yes,7,no,,
286,119,0,0,33,5,67,137,no,2,yes,,
277,114,0,0,19,2,63,107,yes,0,no,,
272,118,1,5,23,2,64,113,yes,7,no,,
290,117,0,5,22,2,67,110,yes,7,no,,
277,137,4,0,41,5,65,126,yes,7,no,,
292,133,4,7,29,4,65,135,yes,6,no,,
264,100,3,5,28,2,60,111,yes,4,yes,,
273,107,0,1,26,4,65,135,yes,4,no,,
292,91,0,7,26,2,61,113,yes,7,yes,,
287,112,1,0,27,5,64,110,yes,4,yes,,
289,125,0,2,31,5,61,120,yes,5,no,,
291,157,6,7,33,2,65,121,yes,1,yes,,
256,108,0,1,26,5,67,130,yes,3,no,,
279,130,5,7,31,2,62,122,yes,5,no,,
277,123,1,9,24,4,66,122,yes,5,no,,
281,100,2,8,24,2,61,115,yes,7,no,,
277,124,0,6,23,2,64,104,yes,5,no,,
284,174,7,7,39,2,65,163,no,1,no,,
278,129,3,2,26,4,67,146,yes,5,no,,
275,119,1,0,27,2,59,113,yes,3,yes,,
272,126,0,3,35,2,61,120,yes,9,yes,,
267,128,4,7,37,3,61,142,yes,7,no,,
282,116,0,4,19,1,64,124,yes,0,yes,,
285,96,2,1,37,5,66,135,yes,4,yes,,
292,110,2,2,35,4,62,127,yes,5,yes,,
278,108,3,0,28,2,63,125,yes,7,yes,,
275,129,1,0,24,2,65,135,no,7,no,,
276,110,5,7,31,4,70,155,yes,2,no,,
273,118,2,7,21,1,63,120,yes,4,yes,,
267,111,0,9,24,4,60,115,yes,5,yes,,
297,160,1,9,20,1,68,136,yes,3,yes,,
280,120,1,0,30,2,60,115,yes,4,no,,
281,121,3,0,29,3,63,108,yes,5,yes,,
282,113,2,4,30,3,64,118,yes,2,yes,,
270,117,2,6,23,1,58,115,yes,1,yes,,
267,158,1,4,35,2,64,125,yes,4,no,,
277,128,2,1,39,2,61,120,yes,3,no,,
289,158,3,0,30,4,66,140,yes,2,no,,
298,163,3,3,37,2,61,98,yes,7,yes,,
282,128,0,9,19,4,66,118,yes,4,no,,
271,126,0,7,21,4,60,105,yes,1,yes,,
283,127,5,7,42,1,62,154,yes,2,yes,,
287,134,5,0,40,2,63,118,yes,6,no,,
274,140,5,9,41,4,63,122,yes,8,no,,
285,102,2,1,29,2,63,117,yes,7,yes,,
252,100,1,7,24,2,61,150,yes,1,no,,
295,120,3,6,29,1,59,100,yes,3,yes,,
246,130,1,0,19,2,62,118,yes,1,no,,
285,122,1,0,31,4,62,102,yes,1,yes,,
276,137,0,6,25,5,64,127,yes,3,no,,
285,114,0,0,20,2,61,104,yes,5,no,,
236,63,0,5,24,5,58,99,yes,7,no,,
318,98,1,7,23,4,63,107,yes,1,no,,
268,99,2,7,32,4,63,124,yes,7,yes,,
283,117,1,4,22,2,65,142,yes,1,yes,,
281,143,5,0,29,2,67,132,yes,4,no,,
279,106,3,5,29,2,63,125,yes,2,yes,,
300,156,4,0,27,2,65,120,yes,2,yes,,
266,72,0,0,25,1,66,200,yes,4,yes,,
266,75,3,0,37,3,61,113,yes,7,yes,,
285,97,2,8,35,4,61,112,yes,3,yes,,
264,106,5,0,41,2,64,114,yes,7,yes,,
225,91,1,4,18,1,68,117,yes,1,yes,,
269,117,0,8,28,5,61,99,yes,0,no,,
284,117,1,4,25,5,66,177,yes,2,yes,,
291,112,3,7,23,1,66,145,yes,1,no,,
270,112,1,8,29,5,61,124,yes,2,no,,
293,141,4,4,28,2,61,125,yes,1,yes,,
259,131,1,3,19,1,63,134,yes,1,no,,
290,130,1,5,19,2,65,123,yes,6,yes,,
270,132,2,5,26,2,67,140,yes,4,no,,
265,114,1,0,23,2,67,130,yes,5,yes,,
291,160,3,0,34,1,64,110,yes,7,yes,,
283,106,2,7,24,4,63,119,yes,1,yes,,
260,84,0,0,20,2,64,104,yes,2,yes,,
268,112,0,2,25,5,59,103,yes,7,yes,,
311,139,4,5,37,2,66,135,yes,5,no,,
294,130,4,0,32,2,63,110,yes,4,yes,,
270,82,2,7,21,1,65,150,yes,1,yes,,
280,119,0,6,21,3,64,128,yes,5,no,,
278,115,1,8,27,4,59,95,yes,3,no,,
289,124,0,0,21,3,67,145,yes,3,yes,,
292,138,1,5,25,3,65,130,yes,1,yes,,
276,88,5,7,25,1,63,103,yes,1,yes,,
241,128,0,7,17,1,64,126,yes,2,no,,
274,82,1,10,31,4,64,101,yes,7,yes,,
274,100,2,9,24,4,63,113,yes,7,yes,,
271,114,5,7,32,5,61,130,yes,8,no,,
269,97,1,0,20,2,65,137,yes,3,yes,,
295,152,1,4,39,2,62,140,yes,2,no,,
274,116,1,1,21,2,62,110,yes,2,yes,,
302,132,6,6,36,1,63,145,yes,1,yes,,
260,84,0,0,37,5,66,140,yes,9,yes,,
277,119,0,3,18,1,61,89,yes,1,yes,,
291,139,1,7,24,2,65,160,yes,2,no,,
273,103,6,7,36,1,65,158,yes,2,yes,,
299,112,1,0,24,1,67,145,no,5,yes,,
276,96,2,5,33,5,64,127,yes,3,yes,,
300,120,9,7,34,2,63,150,yes,1,yes,,
338,102,2,7,19,1,64,170,yes,1,no,,
255,97,0,7,22,2,63,107,yes,2,yes,,
285,113,1,5,22,4,70,145,yes,2,yes,,
297,130,4,7,32,2,58,130,yes,8,no,,
260,97,0,0,25,5,63,115,yes,5,yes,,
273,116,4,2,31,5,61,120,yes,1,no,,
266,114,1,8,29,2,64,113,yes,7,no,,
242,127,1,7,17,1,61,135,yes,0,yes,,
281,141,6,7,29,2,54,156,yes,2,yes,,
283,144,0,0,25,2,66,140,yes,6,yes,,
273,116,5,0,33,4,66,130,yes,6,yes,,
265,75,1,0,21,1,65,103,yes,2,yes,,
286,138,0,0,28,2,68,120,yes,8,yes,,
293,118,1,5,21,2,63,103,yes,4,no,,
266,97,4,7,24,1,62,109,yes,0,no,,
319,146,2,0,28,2,66,145,yes,9,no,,
321,110,2,7,28,2,66,180,yes,5,no,,
284,135,0,0,19,2,60,95,yes,2,no,,
290,114,0,0,21,4,65,120,yes,1,yes,,
281,143,4,7,28,1,65,135,yes,1,yes,,
287,113,0,3,29,5,70,145,yes,9,yes,,
244,109,0,0,21,3,63,102,yes,3,yes,,
278,103,2,0,30,1,60,87,yes,1,yes,,
276,118,1,6,34,4,64,116,yes,3,no,,
290,127,2,0,27,4,65,121,yes,7,yes,,
270,132,3,7,27,2,65,126,yes,3,yes,,
275,113,0,0,27,5,60,100,yes,4,no,,
265,128,1,0,24,5,67,120,yes,3,no,,
291,130,4,1,30,2,65,150,yes,3,yes,,
281,125,0,0,21,4,65,110,yes,1,no,,
297,117,4,0,38,4,65,129,yes,6,no,,
