     Assembly listing for: task1.mas
                Assembled: Fri Feb 26 11:54:20 AST 2021

         |           ORG 100            / Program starts at location 0x100 in memory
100 1111 |  Ak       LOAD THURISAZ       
101 4110 |           SUBT WUNJO          
102 8400 |           SKIPCOND 400        
103 9108 |           JUMP Gifu           
104 1111 |  Rad      LOAD THURISAZ       
105 3111 |           ADD THURISAZ        
106 2111 |           STORE THURISAZ      
107 910B |           JUMP Wyn            
108 1110 |  Gifu     LOAD WUNJO          
109 4111 |           SUBT THURISAZ       
10A 2110 |           STORE WUNJO         
10B 1111 |  Wyn      LOAD THURISAZ       
10C 6000 |           OUTPUT              
10D 1110 |           LOAD WUNJO          
10E 6000 |           OUTPUT              
10F 7000 |           HALT                
         |                              / STUDENT ID FORMAT: NNNNNNN – example: 5081234
110 0090 |  WUNJO    DEC 0144           / SUBST first four digits of YOUR student ID (pad
         |                              				 / with an extra 0 if you have an ID <
         |                              				 / 100000)
111 010D |  THURISAZ DEC 269            / SUBST last three digits of YOUR student ID

Assembly successful.

         SYMBOL TABLE
         ----------------------------------------------------
          Symbol   | Defined | References 
         ----------+---------+-------------------------------
          Ak       |   100   | 
          Gifu     |   108   | 103
          Rad      |   104   | 
          THURISAZ |   111   | 100, 104, 105, 106, 109, 10B
          WUNJO    |   110   | 101, 108, 10A, 10D
          Wyn      |   10B   | 107
         ----------------------------------------------------

